[gd_scene load_steps=10 format=3 uid="uid://45h0v0itdlip"]

[ext_resource type="Script" path="res://scenes/auxiliary/environment.gd" id="1_iqiyj"]
[ext_resource type="Shader" path="res://scenes/auxiliary/blueprint.gdshader" id="2_qqd4i"]

[sub_resource type="Environment" id="Environment_07qwr"]
background_mode = 1
ambient_light_source = 2
ambient_light_color = Color(0.439216, 0.439216, 0.439216, 1)
tonemap_mode = 2
ssao_enabled = true
sdfgi_enabled = true
glow_enabled = true
fog_enabled = true
fog_light_color = Color(0, 0, 0, 1)
volumetric_fog_enabled = true
volumetric_fog_density = 0.01
volumetric_fog_detail_spread = 0.5

[sub_resource type="ShaderMaterial" id="ShaderMaterial_wep8g"]
render_priority = 0
shader = ExtResource("2_qqd4i")
shader_parameter/crosses_width = 0.02
shader_parameter/crosses_size = 0.1
shader_parameter/scale = Vector2(32, 32)
shader_parameter/A = Color(1, 1, 1, 1)
shader_parameter/B = Color(0, 0, 0, 1)

[sub_resource type="ArrayMesh" id="ArrayMesh_lav8o"]
_surfaces = [{
"aabb": AABB(-16, 0, -16, 32, 12, 32),
"format": 4097,
"index_count": 36,
"index_data": PackedByteArray(0, 0, 3, 0, 2, 0, 0, 0, 1, 0, 3, 0, 2, 0, 7, 0, 6, 0, 2, 0, 3, 0, 7, 0, 6, 0, 5, 0, 4, 0, 6, 0, 7, 0, 5, 0, 4, 0, 1, 0, 0, 0, 4, 0, 5, 0, 1, 0, 2, 0, 4, 0, 0, 0, 2, 0, 6, 0, 4, 0, 7, 0, 1, 0, 5, 0, 7, 0, 3, 0, 1, 0),
"name": "Material",
"primitive": 3,
"vertex_count": 8,
"vertex_data": PackedByteArray(0, 0, 128, 193, 0, 0, 0, 0, 0, 0, 128, 65, 0, 0, 128, 193, 0, 0, 64, 65, 0, 0, 128, 65, 0, 0, 128, 193, 0, 0, 0, 0, 0, 0, 128, 193, 0, 0, 128, 193, 0, 0, 64, 65, 0, 0, 128, 193, 0, 0, 128, 65, 0, 0, 0, 0, 0, 0, 128, 65, 0, 0, 128, 65, 0, 0, 64, 65, 0, 0, 128, 65, 0, 0, 128, 65, 0, 0, 0, 0, 0, 0, 128, 193, 0, 0, 128, 65, 0, 0, 64, 65, 0, 0, 128, 193)
}]
blend_shape_mode = 0

[sub_resource type="ArrayMesh" id="ArrayMesh_jk4t7"]
resource_name = "env-20e7ee0a3c4bb2b9279ca6451622863b_Cube"
_surfaces = [{
"aabb": AABB(-16, 0, -16, 32, 12, 32),
"attribute_data": PackedByteArray(217, 21, 96, 63, 0, 16, 105, 57, 231, 18, 105, 57, 111, 241, 127, 63, 146, 14, 0, 63, 145, 14, 0, 63, 230, 22, 105, 57, 0, 16, 105, 57, 198, 32, 48, 63, 0, 0, 105, 57, 165, 3, 48, 63, 146, 14, 0, 63, 199, 32, 48, 63, 146, 14, 0, 63, 229, 26, 105, 57, 146, 14, 0, 63, 145, 14, 0, 63, 111, 241, 127, 63, 233, 10, 105, 57, 220, 226, 255, 62, 218, 21, 96, 63, 146, 14, 0, 63, 165, 3, 48, 63, 111, 241, 127, 63, 165, 3, 48, 63, 0, 16, 105, 57, 217, 21, 96, 63, 220, 226, 255, 62, 221, 226, 255, 62, 111, 241, 127, 63, 146, 14, 0, 63, 0, 16, 105, 57, 221, 226, 255, 62, 0, 16, 105, 57, 198, 32, 48, 63, 220, 226, 255, 62, 164, 3, 48, 63, 222, 226, 255, 62, 199, 32, 48, 63, 111, 241, 127, 63, 222, 226, 255, 62, 146, 14, 0, 63, 145, 14, 0, 63, 222, 226, 255, 62, 220, 226, 255, 62, 220, 226, 255, 62, 218, 21, 96, 63, 111, 241, 127, 63),
"format": 4119,
"index_count": 36,
"index_data": PackedByteArray(2, 0, 11, 0, 8, 0, 2, 0, 5, 0, 11, 0, 6, 0, 23, 0, 19, 0, 6, 0, 10, 0, 23, 0, 18, 0, 15, 0, 12, 0, 18, 0, 21, 0, 15, 0, 13, 0, 4, 0, 0, 0, 13, 0, 17, 0, 4, 0, 7, 0, 14, 0, 1, 0, 7, 0, 20, 0, 14, 0, 22, 0, 3, 0, 16, 0, 22, 0, 9, 0, 3, 0),
"material": SubResource("ShaderMaterial_wep8g"),
"name": "Material",
"primitive": 3,
"vertex_count": 24,
"vertex_data": PackedByteArray(0, 0, 128, 193, 0, 0, 0, 0, 0, 0, 128, 65, 255, 255, 255, 255, 255, 127, 0, 128, 0, 0, 128, 193, 0, 0, 0, 0, 0, 0, 128, 65, 255, 127, 255, 255, 255, 255, 255, 191, 0, 0, 128, 193, 0, 0, 0, 0, 0, 0, 128, 65, 255, 255, 255, 127, 255, 127, 255, 255, 0, 0, 128, 193, 0, 0, 64, 65, 0, 0, 128, 65, 255, 127, 0, 0, 255, 255, 255, 191, 0, 0, 128, 193, 0, 0, 64, 65, 0, 0, 128, 65, 255, 255, 255, 255, 255, 127, 0, 128, 0, 0, 128, 193, 0, 0, 64, 65, 0, 0, 128, 65, 255, 255, 255, 127, 255, 127, 255, 255, 0, 0, 128, 193, 0, 0, 0, 0, 0, 0, 128, 193, 255, 127, 255, 127, 255, 127, 255, 255, 0, 0, 128, 193, 0, 0, 0, 0, 0, 0, 128, 193, 255, 127, 255, 255, 255, 255, 255, 191, 0, 0, 128, 193, 0, 0, 0, 0, 0, 0, 128, 193, 255, 255, 255, 127, 255, 127, 255, 255, 0, 0, 128, 193, 0, 0, 64, 65, 0, 0, 128, 193, 255, 127, 0, 0, 255, 255, 255, 191, 0, 0, 128, 193, 0, 0, 64, 65, 0, 0, 128, 193, 255, 127, 255, 127, 255, 127, 255, 255, 0, 0, 128, 193, 0, 0, 64, 65, 0, 0, 128, 193, 255, 255, 255, 127, 255, 127, 255, 255, 0, 0, 128, 65, 0, 0, 0, 0, 0, 0, 128, 65, 0, 0, 255, 127, 255, 127, 0, 128, 0, 0, 128, 65, 0, 0, 0, 0, 0, 0, 128, 65, 255, 255, 255, 255, 255, 127, 0, 128, 0, 0, 128, 65, 0, 0, 0, 0, 0, 0, 128, 65, 255, 127, 255, 255, 255, 255, 255, 191, 0, 0, 128, 65, 0, 0, 64, 65, 0, 0, 128, 65, 0, 0, 255, 127, 255, 127, 0, 128, 0, 0, 128, 65, 0, 0, 64, 65, 0, 0, 128, 65, 255, 127, 0, 0, 255, 255, 255, 191, 0, 0, 128, 65, 0, 0, 64, 65, 0, 0, 128, 65, 255, 255, 255, 255, 255, 127, 0, 128, 0, 0, 128, 65, 0, 0, 0, 0, 0, 0, 128, 193, 0, 0, 255, 127, 255, 127, 0, 128, 0, 0, 128, 65, 0, 0, 0, 0, 0, 0, 128, 193, 255, 127, 255, 127, 255, 127, 255, 255, 0, 0, 128, 65, 0, 0, 0, 0, 0, 0, 128, 193, 255, 127, 255, 255, 255, 255, 255, 191, 0, 0, 128, 65, 0, 0, 64, 65, 0, 0, 128, 193, 0, 0, 255, 127, 255, 127, 0, 128, 0, 0, 128, 65, 0, 0, 64, 65, 0, 0, 128, 193, 255, 127, 0, 0, 255, 255, 255, 191, 0, 0, 128, 65, 0, 0, 64, 65, 0, 0, 128, 193, 255, 127, 255, 127, 255, 127, 255, 255)
}]
blend_shape_mode = 0
shadow_mesh = SubResource("ArrayMesh_lav8o")

[sub_resource type="ConcavePolygonShape3D" id="ConcavePolygonShape3D_smxa5"]
data = PackedVector3Array(-16, 0, 16, -16, 12, -16, -16, 0, -16, -16, 0, 16, -16, 12, 16, -16, 12, -16, -16, 0, -16, 16, 12, -16, 16, 0, -16, -16, 0, -16, -16, 12, -16, 16, 12, -16, 16, 0, -16, 16, 12, 16, 16, 0, 16, 16, 0, -16, 16, 12, -16, 16, 12, 16, 16, 0, 16, -16, 12, 16, -16, 0, 16, 16, 0, 16, 16, 12, 16, -16, 12, 16, -16, 0, -16, 16, 0, 16, -16, 0, 16, -16, 0, -16, 16, 0, -16, 16, 0, 16, 16, 12, -16, -16, 12, 16, 16, 12, 16, 16, 12, -16, -16, 12, -16, -16, 12, 16)

[sub_resource type="StandardMaterial3D" id="StandardMaterial3D_02fpy"]
emission_enabled = true
emission = Color(1, 1, 1, 1)

[sub_resource type="SphereMesh" id="SphereMesh_831kq"]
material = SubResource("StandardMaterial3D_02fpy")
radius = 0.2
height = 0.2
radial_segments = 8
rings = 5
is_hemisphere = true

[node name="Environment" type="Node3D"]
script = ExtResource("1_iqiyj")

[node name="WorldEnvironment" type="WorldEnvironment" parent="."]
environment = SubResource("Environment_07qwr")

[node name="StaticBody3D" type="StaticBody3D" parent="."]

[node name="Cube" type="MeshInstance3D" parent="StaticBody3D"]
mesh = SubResource("ArrayMesh_jk4t7")
skeleton = NodePath("")

[node name="CollisionShape3D" type="CollisionShape3D" parent="StaticBody3D"]
shape = SubResource("ConcavePolygonShape3D_smxa5")

[node name="Props" type="Node3D" parent="."]

[node name="MeshInstance3D" type="MeshInstance3D" parent="Props"]
transform = Transform3D(1, 0, 0, 0, -1, 8.74228e-08, 0, -8.74228e-08, -1, 0, 12, 0)
cast_shadow = 0
mesh = SubResource("SphereMesh_831kq")

[node name="SpotLight3D" type="SpotLight3D" parent="Props"]
transform = Transform3D(1, 0, 0, 0, -4.37114e-08, 1, 0, -1, -4.37114e-08, 0, 12, 0)
light_energy = 16.0
shadow_enabled = true
distance_fade_enabled = true
spot_range = 24.0
spot_angle = 55.0
