[gd_scene load_steps=3 format=3 uid="uid://tt6mlk4qhmh7"]

[ext_resource type="Script" path="res://script/view.gd" id="1_6xigq"]

[sub_resource type="CameraAttributesPractical" id="CameraAttributesPractical_k4a2i"]
dof_blur_far_enabled = true
dof_blur_far_distance = 16.0
dof_blur_far_transition = 10.0
dof_blur_near_enabled = true
dof_blur_amount = 0.02
auto_exposure_min_sensitivity = 80.0

[node name="View" type="Marker3D"]
script = ExtResource("1_6xigq")

[node name="Camera3D" type="Camera3D" parent="."]
transform = Transform3D(1, 0, 0, 0, 0.707107, 0.707107, 0, -0.707107, 0.707107, 0, 6, 4)
attributes = SubResource("CameraAttributesPractical_k4a2i")
fov = 58.0
